projects/counter/build_test/vlt_dump.vcd
$version Generated by VerilatedVcd $end
$date Tue Jul 26 21:36:46 2022 $end
$timescale 1ps $end

 $scope module TOP $end
  $var wire  1 # clk $end
  $var wire  4 % out [3:0] $end
  $var wire  1 $ reset $end
  $scope module top $end
   $var wire  1 # clk $end
   $var wire  4 % out [3:0] $end
   $var wire  1 $ reset $end
  $upscope $end
 $upscope $end
$enddefinitions $end


#0
0#
0$
b0000 %
#1
1#
b0001 %
#2
0#
#3
1#
b0010 %
#4
0#
#5
1#
b0011 %
#6
0#
#7
1#
b0100 %
#8
0#
#9
1#
b0101 %
#10
0#
#11
1#
b0110 %
#12
0#
#13
1#
b0111 %
#14
0#
#15
1#
b1000 %
#16
0#
#17
1#
b1001 %
#18
0#
#19
1#
b1010 %
#20
0#
#21
1#
b1011 %
#22
0#
#23
1#
b1100 %
#24
0#
#25
1#
b1101 %
#26
0#
#27
1#
b1110 %
#28
0#
#29
1#
b1111 %
#30
0#
#31
1#
b0000 %
#32
0#
#33
1#
b0001 %
#34
0#
#35
1#
b0010 %
#36
0#
#37
1#
b0011 %
#38
0#
#39
1#
b0100 %
#40
0#
#41
1#
b0101 %
#42
0#
#43
1#
b0110 %
#44
0#
#45
1#
b0111 %
#46
0#
#47
1#
b1000 %
#48
0#
#49
1#
b1001 %
#50
0#
#51
1#
b1010 %
#52
0#
#53
1#
b1011 %
#54
0#
#55
1#
b1100 %
#56
0#
#57
1#
b1101 %
#58
0#
#59
1#
b1110 %
#60
0#
#61
1#
b1111 %
#62
0#
#63
1#
b0000 %
#64
0#
#65
1#
b0001 %
#66
0#
#67
1#
b0010 %
#68
0#
#69
1#
b0011 %
#70
0#
#71
1#
b0100 %
#72
0#
#73
1#
b0101 %
#74
0#
#75
1#
b0110 %
#76
0#
#77
1#
b0111 %
#78
0#
#79
1#
b1000 %
#80
0#
#81
1#
b1001 %
#82
0#
#83
1#
b1010 %
#84
0#
#85
1#
b1011 %
#86
0#
#87
1#
b1100 %
#88
0#
#89
1#
b1101 %
#90
0#
#91
1#
b1110 %
#92
0#
#93
1#
b1111 %
#94
0#
#95
1#
b0000 %
#96
0#
#97
1#
b0001 %
#98
0#
#99
1#
b0010 %
